^D:\КУРСЫ_ПО_ПРОГРАММИРОВАНИЮ\CONSOLEAPPLICATION6\CONSOLEAPPLICATION6\STDAFX.CPP
D:\курсы_по_программированию\CONSOLEAPPLICATION6\CONSOLEAPPLICATION6\DEBUG\CONSOLEAPPLICATION6.PCH
D:\курсы_по_программированию\CONSOLEAPPLICATION6\CONSOLEAPPLICATION6\DEBUG\VC141.PDB
D:\курсы_по_программированию\CONSOLEAPPLICATION6\CONSOLEAPPLICATION6\DEBUG\VC141.IDB
D:\курсы_по_программированию\CONSOLEAPPLICATION6\CONSOLEAPPLICATION6\DEBUG\STDAFX.OBJ
^D:\КУРСЫ_ПО_ПРОГРАММИРОВАНИЮ\CONSOLEAPPLICATION6\CONSOLEAPPLICATION6\CONSOLEAPPLICATION6.CPP
D:\курсы_по_программированию\CONSOLEAPPLICATION6\CONSOLEAPPLICATION6\DEBUG\VC141.PDB
D:\курсы_по_программированию\CONSOLEAPPLICATION6\CONSOLEAPPLICATION6\DEBUG\VC141.IDB
D:\курсы_по_программированию\CONSOLEAPPLICATION6\CONSOLEAPPLICATION6\DEBUG\CONSOLEAPPLICATION6.OBJ
